{
    "rg_name_prefix"    : "rg-tf-demo",
    "rg_loction"        : "centralindia",
    "rg_tags"           : {
        "Environment"   : "Sandbox",
        "Free"          : "Yes",
        "Cleanup"       :"Yes"
    }
}